1 10 20
100 200 125
201 210 89
900 1000 174
55432 47495 340
60874 95015 351
53323 66564 335
64407 77477 351
62403 24954 340
12359 1638 268
65966 48002 340
42755 74210 340
84398 8406 351
10624 89583 351
58420 35514 340
52315 99584 351
58972 19929 340
93811 67193 351
52682 81576 351
92397 80481 333
90802 7660 351
98457 62023 351
8459 98459 351
74321 93905 351
128315 175352 383
139545 165637 383
189803 195749 360
138804 168018 383
153560 180835 383
150751 137752 375
152575 156879 383
162451 174041 352
180553 153785 383
105462 197450 383
186459 190437 360
170951 186050 365
176101 199556 365
126743 130960 344
112991 119581 349
105202 183528 383
130343 154250 375
114533 132300 349
187189 105466 383
162939 110827 383
203969 280426 443
235740 255640 368
234214 293254 407
296990 294902 358
227760 242886 443
290556 265989 407
291994 208897 443
252038 276027 407
282842 253241 407
246335 267542 407
270047 208150 443
276537 247439 407
207631 286746 443
293775 201658 443
259750 206079 443
246598 242680 337
201572 223780 386
293023 275887 389
219521 294339 443
226825 283078 443
313226 363702 441
333239 336863 366
393431 335073 441
301477 380773 441
376723 334245 441
323144 325517 384
304921 335169 384
381132 310684 441
376403 336266 441
370109 374747 392
319710 313926 353
382348 361156 423
385653 377238 379
382755 367972 423
305915 359907 441
386714 314697 441
301470 342127 384
325537 309022 384
309825 362473 441
356893 318315 441
532543 545607 408
554223 542990 452
527146 533681 377
580725 516807 452
545607 538838 408
548531 534510 452
558726 588165 434
596073 539777 452
518082 508905 470
527277 512369 439
504305 588489 470
554628 538794 452
526588 567556 452
573301 578641 390
531947 588199 452
533556 530243 377
576932 539864 452
572792 595143 434
536686 556188 452
599438 520920 452
679526 679909 367
673707 696992 442
607081 625280 447
631725 647550 416
653733 640224 416
661984 669971 442
619081 645395 509
645242 691248 442
631116 651637 416
699915 608243 509
610251 605711 403
611553 662843 509
693614 643135 442
665804 645583 442
654720 617204 509
662654 608843 509
624256 673647 509
609605 641894 509
602797 626146 447
624739 688382 509
776459 774260 437
757789 703103 504
767715 796629 468
799719 760754 468
749973 768356 468
702490 760416 504
717757 730862 411
750156 775315 468
744017 741223 349
734563 769492 468
734429 715061 411
765757 775671 468
738232 729534 424
770193 769199 393
733764 785385 468
726118 714813 411
793010 747054 468
724892 787941 468
752518 792320 468
717716 732206 411
849024 867026 419
826125 843768 525
889772 881274 445
832157 815912 450
895689 856839 445
875850 813621 525
849508 875336 432
817515 866719 525
813192 881048 525
830197 819727 450
878638 832289 525
891288 819816 525
843384 830814 525
827871 887358 525
810091 850132 525
881219 873876 432
805273 861064 525
888667 868737 445
834516 835909 344
840538 898912 445
972011 964110 458
973339 976597 383
972420 961094 458
950160 927541 507
959222 915430 507
961738 932717 507
988942 903531 507
993881 993372 259
973329 983849 427
956566 960662 352
946540 924996 507
956097 914581 507
976105 938481 507
960486 917530 507
906326 962213 507
914125 963162 507
929057 997377 507
945629 976679 458
943511 964237 414
955790 923098 507
